{
  "cordova-plugin-whitelist": {
    "source": {
      "type": "registry",
      "id": "cordova-plugin-whitelist@^1.3.3"
    },
    "is_top_level": true,
    "variables": {}
  },
  "cordova-plugin-device": {
    "source": {
      "type": "registry",
      "id": "cordova-plugin-device@^2.0.2"
    },
    "is_top_level": true,
    "variables": {}
  },
  "cordova-plugin-splashscreen": {
    "source": {
      "type": "registry",
      "id": "cordova-plugin-splashscreen@^5.0.2"
    },
    "is_top_level": true,
    "variables": {}
  },
  "cordova-plugin-ionic-webview": {
    "source": {
      "type": "registry",
      "id": "cordova-plugin-ionic-webview@^1.1.19"
    },
    "is_top_level": true,
    "variables": {}
  },
  "cordova-plugin-ionic-keyboard": {
    "source": {
      "type": "registry",
      "id": "cordova-plugin-ionic-keyboard@^2.0.5"
    },
    "is_top_level": true,
    "variables": {}
  },
  "cordova-plugin-network-information": {
    "source": {
      "type": "registry",
      "id": "cordova-plugin-network-information@^2.0.1"
    },
    "is_top_level": true,
    "variables": {}
  },
  "cordova-plugin-inappbrowser": {
    "source": {
      "type": "registry",
      "id": "cordova-plugin-inappbrowser@^3.0.0"
    },
    "is_top_level": true,
    "variables": {}
  },
  "cordova-plugin-screen-orientation": {
    "source": {
      "type": "registry",
      "id": "cordova-plugin-screen-orientation"
    },
    "is_top_level": true,
    "variables": {}
  },
  "es6-promise-plugin": {
    "source": {
      "type": "registry",
      "id": "es6-promise-plugin@^4.1.0"
    },
    "is_top_level": false,
    "variables": {}
  },
  "cordova-plugin-geolocation": {
    "source": {
      "type": "registry",
      "id": "cordova-plugin-geolocation@4.0.1"
    },
    "is_top_level": true,
    "variables": {
      "GEOLOCATION_USAGE_DESCRIPTION": "To locate you"
    }
  },
  "cordova-plugin-actionsheet": {
    "source": {
      "type": "registry",
      "id": "cordova-plugin-actionsheet@2"
    },
    "is_top_level": false,
    "variables": {}
  },
  "cordova-plugin-dialogs": {
    "source": {
      "type": "registry",
      "id": "cordova-plugin-dialogs@*"
    },
    "is_top_level": false,
    "variables": {}
  },
  "mx.ferreyra.callnumber": {
    "source": {
      "type": "registry",
      "id": "call-number"
    },
    "is_top_level": true,
    "variables": {}
  },
  "cordova-plugin-email-composer": {
    "source": {
      "type": "registry",
      "id": "cordova-plugin-email-composer"
    },
    "is_top_level": true,
    "variables": {}
  },
  "cordova-plugin-qrscanner": {
    "source": {
      "type": "registry",
      "id": "cordova-plugin-qrscanner"
    },
    "is_top_level": true,
    "variables": {}
  },
  "cordova-plugin-add-swift-support": {
    "source": {
      "type": "registry",
      "id": "cordova-plugin-add-swift-support"
    },
    "is_top_level": false,
    "variables": {}
  },
  "cordova-plugin-printer": {
    "source": {
      "type": "registry",
      "id": "cordova-plugin-printer"
    },
    "is_top_level": true,
    "variables": {}
  },
  "cordova-plugin-x-socialsharing": {
    "source": {
      "type": "registry",
      "id": "cordova-plugin-x-socialsharing"
    },
    "is_top_level": true,
    "variables": {}
  },
  "cordova-plugin-filechooser": {
    "source": {
      "type": "registry",
      "id": "cordova-plugin-filechooser"
    },
    "is_top_level": true,
    "variables": {}
  },
  "cordova-plugin-filepath": {
    "source": {
      "type": "registry",
      "id": "cordova-plugin-filepath"
    },
    "is_top_level": true,
    "variables": {}
  },
  "cordova-plugin-appversion": {
    "source": {
      "type": "registry",
      "id": "cordova-plugin-appversion@1.0.0"
    },
    "is_top_level": false,
    "variables": {}
  }
}